{
    "count": 166,
    "next": "https://healthy-system-267921.uc.r.appspot.com/api/movies/?page=2&test=01318210477f6eeb0652c6512a9ec245%0A",
    "previous": null,
    "results": [
        {
            "url": "https://healthy-system-267921.uc.r.appspot.com/api/movies/414/",
            "trailer": null,
            "name": "16 Barse Yoban Salala Bage Jasto",
            "imdb_id": "7884938",
            "tmdb_id": "",
            "release_date": "2019-01-01T00:00:00Z",
            "rating": "U",
            "plot": "None",
            "length": "00:00:00",
            "image": "https://m.media-amazon.com/images/M/MV5BNTQ5ZDAwNWUtZjFmNC00MWJlLTkxMmQtMTRmNDkxYjNlMzNmXkEyXkFqcGdeQXVyMzQ5MjE5Nzc@.jpg",
            "youtube": null,
            "genre": [
                "https://healthy-system-267921.uc.r.appspot.com/api/genres/192/",
                "https://healthy-system-267921.uc.r.appspot.com/api/genres/204/"
            ],
            "role": [
                "https://healthy-system-267921.uc.r.appspot.com/api/roles/1793/",
                "https://healthy-system-267921.uc.r.appspot.com/api/roles/1794/",
                "https://healthy-system-267921.uc.r.appspot.com/api/roles/1795/",
                "https://healthy-system-267921.uc.r.appspot.com/api/roles/1796/",
                "https://healthy-system-267921.uc.r.appspot.com/api/roles/1797/"
            ],
            "streaming": [
                "https://healthy-system-267921.uc.r.appspot.com/api/streamings/5/"
            ]
        },
        {
            "url": "https://healthy-system-267921.uc.r.appspot.com/api/movies/351/",
            "trailer": null,
            "name": "1 Percent",
            "imdb_id": "2298942",
            "tmdb_id": "493981",
            "release_date": "2012-01-01T00:00:00Z",
            "rating": "U",
            "plot": "2015, illegal and uncontrolled sex-trade is leading to a huge number of HIV infections. Sammy, a decent guy with a decent life is bored while his wife is away. He hesitantly decides to buy sex to kill his boredom. Everything goes well until he realizes that is condom has broken. The only thing that scares him more than possibly being infected with HIV is that he might transfer the disease to his wife. Medical science cannot give him the peace of mind quick enough so he takes it upon himself to find out his and his wife's fate. His hoped journey to HIV negative takes us through the darker side of the holy city, Kathmandu, Nepal, giving viewers a new perspective on fate and decision.::Anonymous",
            "length": "00:38:00",
            "image": "https://m.media-amazon.com/images/M/MV5BOGMwOTdhMGQtNzdmYS00Y2E2LTgwMmQtMmU2ZDQ4NzRmMDI5XkEyXkFqcGdeQXVyMjA1MzU0NDA@.jpg",
            "youtube": null,
            "genre": [
                "https://healthy-system-267921.uc.r.appspot.com/api/genres/191/",
                "https://healthy-system-267921.uc.r.appspot.com/api/genres/192/"
            ],
            "role": [
                "https://healthy-system-267921.uc.r.appspot.com/api/roles/1501/",
                "https://healthy-system-267921.uc.r.appspot.com/api/roles/1502/",
                "https://healthy-system-267921.uc.r.appspot.com/api/roles/1503/",
                "https://healthy-system-267921.uc.r.appspot.com/api/roles/1504/",
                "https://healthy-system-267921.uc.r.appspot.com/api/roles/1505/"
            ],
            "streaming": [
                "https://healthy-system-267921.uc.r.appspot.com/api/streamings/5/"
            ]
        },
        {
            "url": "https://healthy-system-267921.uc.r.appspot.com/api/movies/388/",
            "trailer": null,
            "name": "3 Brother's Company",
            "imdb_id": "12599186",
            "tmdb_id": "",
            "release_date": "2020-01-01T00:00:00Z",
            "rating": "U",
            "plot": "None",
            "length": "00:37:00",
            "image": "https://m.media-amazon.com/images/M/MV5BNDhmYjQyMjAtMGJlYS00NDU2LTkwYjgtNjVlNmM3ZWQ5YjBjXkEyXkFqcGdeQXVyODAwMzUzNDk@.jpg",
            "youtube": null,
            "genre": [
                "https://healthy-system-267921.uc.r.appspot.com/api/genres/192/",
                "https://healthy-system-267921.uc.r.appspot.com/api/genres/194/"
            ],
            "role": [
                "https://healthy-system-267921.uc.r.appspot.com/api/roles/1685/",
                "https://healthy-system-267921.uc.r.appspot.com/api/roles/1686/",
                "https://healthy-system-267921.uc.r.appspot.com/api/roles/1687/"
            ],
            "streaming": [
                "https://healthy-system-267921.uc.r.appspot.com/api/streamings/5/"
            ]
        },
        {
            "url": "https://healthy-system-267921.uc.r.appspot.com/api/movies/300/",
            "trailer": null,
            "name": "Aastha ",
            "imdb_id": "9517300",
            "tmdb_id": "490766",
            "release_date": "2030-01-01T00:00:00Z",
            "rating": "U",
            "plot": "None",
            "length": "00:00:00",
            "image": "None",
            "youtube": null,
            "genre": [
                "https://healthy-system-267921.uc.r.appspot.com/api/genres/191/"
            ],
            "role": [
                "https://healthy-system-267921.uc.r.appspot.com/api/roles/1263/",
                "https://healthy-system-267921.uc.r.appspot.com/api/roles/1264/",
                "https://healthy-system-267921.uc.r.appspot.com/api/roles/1265/",
                "https://healthy-system-267921.uc.r.appspot.com/api/roles/1266/"
            ],
            "streaming": [
                "https://healthy-system-267921.uc.r.appspot.com/api/streamings/5/"
            ]
        },
        {
            "url": "https://healthy-system-267921.uc.r.appspot.com/api/movies/301/",
            "trailer": null,
            "name": "Awaken Eyes",
            "imdb_id": "1843851",
            "tmdb_id": "490766",
            "release_date": "2008-01-01T00:00:00Z",
            "rating": "U",
            "plot": "Awaken eyes is a piteous story about a newly wedded couple who have a hardest time to get physically connected. Sharing the room with the sick mother really makes the groom and the bride reluctant to sex on first night of their marriage as they are frequently disturbed with the sick sighs of the mother. Fighting with the obsession of the biological urge they are finally able to make love the following night but the tragedy strikes when they remain aloof of their sick mother's presence.::Anonymous",
            "length": "00:28:00",
            "image": "https://m.media-amazon.com/images/M/MV5BNDQ3NmZjNmEtYjdiNy00MjNiLWIzMjYtZTFiMmQ5YTdjZWE5XkEyXkFqcGdeQXVyMjQzMDY5NzM@.jpg",
            "youtube": null,
            "genre": [
                "https://healthy-system-267921.uc.r.appspot.com/api/genres/191/",
                "https://healthy-system-267921.uc.r.appspot.com/api/genres/192/"
            ],
            "role": [
                "https://healthy-system-267921.uc.r.appspot.com/api/roles/1267/",
                "https://healthy-system-267921.uc.r.appspot.com/api/roles/1268/",
                "https://healthy-system-267921.uc.r.appspot.com/api/roles/1269/",
                "https://healthy-system-267921.uc.r.appspot.com/api/roles/1270/"
            ],
            "streaming": [
                "https://healthy-system-267921.uc.r.appspot.com/api/streamings/5/"
            ]
        },
        {
            "url": "https://healthy-system-267921.uc.r.appspot.com/api/movies/385/",
            "trailer": null,
            "name": "A Woman of Merit",
            "imdb_id": "7056376",
            "tmdb_id": "496065",
            "release_date": "2015-01-01T00:00:00Z",
            "rating": "U",
            "plot": "None",
            "length": "00:05:00",
            "image": "https://m.media-amazon.com/images/M/MV5BOTJjZDBlNGYtMDA0Zi00ZWMyLThkOGMtZDVhZDIzMjhjNjNhXkEyXkFqcGdeQXVyNTU0NTA0MzE@.jpg",
            "youtube": null,
            "genre": [
                "https://healthy-system-267921.uc.r.appspot.com/api/genres/191/",
                "https://healthy-system-267921.uc.r.appspot.com/api/genres/192/"
            ],
            "role": [
                "https://healthy-system-267921.uc.r.appspot.com/api/roles/1671/",
                "https://healthy-system-267921.uc.r.appspot.com/api/roles/1672/",
                "https://healthy-system-267921.uc.r.appspot.com/api/roles/1673/",
                "https://healthy-system-267921.uc.r.appspot.com/api/roles/1674/",
                "https://healthy-system-267921.uc.r.appspot.com/api/roles/1675/"
            ],
            "streaming": [
                "https://healthy-system-267921.uc.r.appspot.com/api/streamings/5/"
            ]
        },
        {
            "url": "https://healthy-system-267921.uc.r.appspot.com/api/movies/374/",
            "trailer": null,
            "name": "Baacha Bandhan",
            "imdb_id": "0315241",
            "tmdb_id": "706251",
            "release_date": "2002-01-01T00:00:00Z",
            "rating": "U",
            "plot": "None",
            "length": "00:00:00",
            "image": "None",
            "youtube": null,
            "genre": [
                "https://healthy-system-267921.uc.r.appspot.com/api/genres/191/",
                "https://healthy-system-267921.uc.r.appspot.com/api/genres/193/"
            ],
            "role": [
                "https://healthy-system-267921.uc.r.appspot.com/api/roles/1616/",
                "https://healthy-system-267921.uc.r.appspot.com/api/roles/1617/",
                "https://healthy-system-267921.uc.r.appspot.com/api/roles/1618/",
                "https://healthy-system-267921.uc.r.appspot.com/api/roles/1619/",
                "https://healthy-system-267921.uc.r.appspot.com/api/roles/1620/"
            ],
            "streaming": [
                "https://healthy-system-267921.uc.r.appspot.com/api/streamings/5/"
            ]
        },
        {
            "url": "https://healthy-system-267921.uc.r.appspot.com/api/movies/387/",
            "trailer": null,
            "name": "Bansulli",
            "imdb_id": "2514384",
            "tmdb_id": "496534",
            "release_date": "2012-01-01T00:00:00Z",
            "rating": "U",
            "plot": "A journey of hopes and desires, against the social stigma that still prevails in Nepal.::Anonymous",
            "length": "00:15:00",
            "image": "https://image.tmdb.org/t/p/original/7Yisyky8WWcEr1sNDbCZIy3R10T.jpg",
            "youtube": null,
            "genre": [
                "https://healthy-system-267921.uc.r.appspot.com/api/genres/191/",
                "https://healthy-system-267921.uc.r.appspot.com/api/genres/192/"
            ],
            "role": [
                "https://healthy-system-267921.uc.r.appspot.com/api/roles/1307/",
                "https://healthy-system-267921.uc.r.appspot.com/api/roles/1308/",
                "https://healthy-system-267921.uc.r.appspot.com/api/roles/1309/",
                "https://healthy-system-267921.uc.r.appspot.com/api/roles/1310/",
                "https://healthy-system-267921.uc.r.appspot.com/api/roles/1681/",
                "https://healthy-system-267921.uc.r.appspot.com/api/roles/1682/",
                "https://healthy-system-267921.uc.r.appspot.com/api/roles/1683/",
                "https://healthy-system-267921.uc.r.appspot.com/api/roles/1684/"
            ],
            "streaming": [
                "https://healthy-system-267921.uc.r.appspot.com/api/streamings/5/"
            ]
        },
        {
            "url": "https://healthy-system-267921.uc.r.appspot.com/api/movies/311/",
            "trailer": "https://www.youtube.com/watch?v=SyEx6Ph7La8",
            "name": "Bansulli",
            "imdb_id": "2514384",
            "tmdb_id": "496534",
            "release_date": "2012-01-01T00:00:00Z",
            "rating": "U",
            "plot": "A journey of hopes and desires, against the social stigma that still prevails in Nepal.::Anonymous",
            "length": "00:15:00",
            "image": "https://image.tmdb.org/t/p/original/7Yisyky8WWcEr1sNDbCZIy3R10T.jpg",
            "youtube": null,
            "genre": [
                "https://healthy-system-267921.uc.r.appspot.com/api/genres/191/",
                "https://healthy-system-267921.uc.r.appspot.com/api/genres/192/"
            ],
            "role": [
                "https://healthy-system-267921.uc.r.appspot.com/api/roles/1307/",
                "https://healthy-system-267921.uc.r.appspot.com/api/roles/1308/",
                "https://healthy-system-267921.uc.r.appspot.com/api/roles/1309/",
                "https://healthy-system-267921.uc.r.appspot.com/api/roles/1310/"
            ],
            "streaming": [
                "https://healthy-system-267921.uc.r.appspot.com/api/streamings/5/"
            ]
        },
        {
            "url": "https://healthy-system-267921.uc.r.appspot.com/api/movies/379/",
            "trailer": null,
            "name": "Basenji",
            "imdb_id": "10504992",
            "tmdb_id": "706251",
            "release_date": "2020-01-01T00:00:00Z",
            "rating": "U",
            "plot": "After his father is fired for writing a report on Nepal's agricultural industry, a young man has his life spiral into a nightmare as a series of mysterious and disturbing events plunges him deep into the horrifying secrets of his past.::Gaurishankar Entertainment",
            "length": "01:25:00",
            "image": "https://m.media-amazon.com/images/M/MV5BODViZTg2NGEtNGQyMC00YzExLWEyNjQtY2UzYWM1OWMxMDcxXkEyXkFqcGdeQXVyMTA0MzcwMDc1.jpg",
            "youtube": null,
            "genre": [
                "https://healthy-system-267921.uc.r.appspot.com/api/genres/191/",
                "https://healthy-system-267921.uc.r.appspot.com/api/genres/194/",
                "https://healthy-system-267921.uc.r.appspot.com/api/genres/199/"
            ],
            "role": [
                "https://healthy-system-267921.uc.r.appspot.com/api/roles/1641/",
                "https://healthy-system-267921.uc.r.appspot.com/api/roles/1642/",
                "https://healthy-system-267921.uc.r.appspot.com/api/roles/1643/",
                "https://healthy-system-267921.uc.r.appspot.com/api/roles/1644/",
                "https://healthy-system-267921.uc.r.appspot.com/api/roles/1645/"
            ],
            "streaming": [
                "https://healthy-system-267921.uc.r.appspot.com/api/streamings/5/"
            ]
        }
    ]
}